\relax 
\providecommand\hyper@newdestlabel[2]{}
\providecommand\babel@aux[2]{}
\@nameuse{bbl@beforestart}
\providecommand\HyperFirstAtBeginDocument{\AtBeginDocument}
\HyperFirstAtBeginDocument{\ifx\hyper@anchor\@undefined
\global\let\oldcontentsline\contentsline
\gdef\contentsline#1#2#3#4{\oldcontentsline{#1}{#2}{#3}}
\global\let\oldnewlabel\newlabel
\gdef\newlabel#1#2{\newlabelxx{#1}#2}
\gdef\newlabelxx#1#2#3#4#5#6{\oldnewlabel{#1}{{#2}{#3}}}
\AtEndDocument{\ifx\hyper@anchor\@undefined
\let\contentsline\oldcontentsline
\let\newlabel\oldnewlabel
\fi}
\fi}
\global\let\hyper@last\relax 
\gdef\HyperFirstAtBeginDocument#1{#1}
\providecommand\HyField@AuxAddToFields[1]{}
\providecommand\HyField@AuxAddToCoFields[2]{}
\citation{Jack_2015,Peterson_2022}
\citation{Schyns_2002}
\citation{Or_2023}
\citation{Noyes_2021}
\citation{Iwasaki_2016}
\citation{Barrett_2019}
\citation{ekman2011meant}
\citation{ekman1978facial,ekman2002facial}
\citation{Matsumoto_2008,Du_2014}
\citation{Calvo_2008,Du_2011}
\citation{Gosselin_2001,Smith_2005,Wegrzyn_2015,Wegrzyn_2017}
\citation{Piepers_2012}
\citation{Wang_2012}
\citation{Calvo_2013,Iwasaki_2016}
\citation{Wegrzyn_2015}
\citation{Jack_2009,Eisenbarth_2011,Calvo_2018}
\citation{Adolphs_2005,DADDS_2008}
\citation{Hsiao_2008,Peterson_2012,Blais_2017}
\citation{Gosselin_2001,Smith_2005,Blais_2012}
\citation{Jack_2016}
\citation{Nummenmaa_2013}
\babel@aux{english}{}
\@writefile{toc}{\contentsline {section}{\numberline {1}Introduction}{1}{section.1}\protected@file@percent }
\citation{Lundqvist_1998}
\@writefile{toc}{\contentsline {section}{\numberline {2}Methods}{2}{section.2}\protected@file@percent }
\@writefile{toc}{\contentsline {subsection}{\numberline {2.1}Participants}{2}{subsection.2.1}\protected@file@percent }
\@writefile{toc}{\contentsline {subsection}{\numberline {2.2}Stimuli}{2}{subsection.2.2}\protected@file@percent }
\@writefile{toc}{\contentsline {subsection}{\numberline {2.3}Experimental procedure}{2}{subsection.2.3}\protected@file@percent }
\citation{Friston_2007}
\citation{lyons2013discovering}
\citation{misaki2010comparison}
\@writefile{lof}{\contentsline {figure}{\numberline {1}{\ignorespaces \textbf  {Illustration of data processing and of masking.} A, the (x,y)-coordinates selected by the participants were converted into circles and then averaged over all trials for each expression. B, Illustration of the three masking conditions using a grey-scaled average face.\relax }}{3}{figure.caption.1}\protected@file@percent }
\providecommand*\caption@xref[2]{\@setref\relax\@undefined{#1}}
\newlabel{fig:meth}{{1}{3}{\textbf {Illustration of data processing and of masking.} A, the (x,y)-coordinates selected by the participants were converted into circles and then averaged over all trials for each expression. B, Illustration of the three masking conditions using a grey-scaled average face.\relax }{figure.caption.1}{}}
\@writefile{toc}{\contentsline {subsection}{\numberline {2.4}Data analysis}{3}{subsection.2.4}\protected@file@percent }
\@writefile{toc}{\contentsline {subsubsection}{\numberline {2.4.1}Generation of maps}{3}{subsubsection.2.4.1}\protected@file@percent }
\@writefile{toc}{\contentsline {subsubsection}{\numberline {2.4.2}Analyses of Action Units}{3}{subsubsection.2.4.2}\protected@file@percent }
\@writefile{toc}{\contentsline {subsubsection}{\numberline {2.4.3}Analysis of confusions}{3}{subsubsection.2.4.3}\protected@file@percent }
\@writefile{toc}{\contentsline {subsubsection}{\numberline {2.4.4}Predictions}{3}{subsubsection.2.4.4}\protected@file@percent }
\@writefile{toc}{\contentsline {subsubsection}{\numberline {2.4.5}Comparisons with masked faces}{4}{subsubsection.2.4.5}\protected@file@percent }
\@writefile{toc}{\contentsline {subsubsection}{\numberline {2.4.6}Implementation of analyses}{4}{subsubsection.2.4.6}\protected@file@percent }
\@writefile{toc}{\contentsline {section}{\numberline {3}Results}{4}{section.3}\protected@file@percent }
\@writefile{toc}{\contentsline {subsection}{\numberline {3.1}Observer-generated maps}{4}{subsection.3.1}\protected@file@percent }
\@writefile{toc}{\contentsline {subsection}{\numberline {3.2}Analyses of Action Units}{4}{subsection.3.2}\protected@file@percent }
\@writefile{toc}{\contentsline {subsection}{\numberline {3.3}Analysis of confusions}{4}{subsection.3.3}\protected@file@percent }
\@writefile{toc}{\contentsline {subsection}{\numberline {3.4}Predictions}{4}{subsection.3.4}\protected@file@percent }
\@writefile{toc}{\contentsline {subsection}{\numberline {3.5}Relationship between full face highlighting and masked face recognition}{4}{subsection.3.5}\protected@file@percent }
\citation{Eisenbarth_2011,Guo_2012}
\citation{Tipples_2002}
\citation{Whalen_2004,Adolphs_2005,Smith_2005}
\citation{Blais_2012}
\citation{ekman2002facial}
\citation{cohn2007observer,Barrett_2019}
\citation{Tipples_2002}
\citation{Goeleven_2008,Tottenham_2009,Du_2011}
\citation{Calvo_2008,Wegrzyn_2017}
\citation{Eisenbarth_2011,Bombari_2013,Calvo_2018}
\citation{Calder_2000,Wegrzyn_2017}
\citation{Adolphs_2005,Jack_2009,Calvo_2018}
\citation{Calder_2000,Smith_2005,Wegrzyn_2015,Wegrzyn_2017}
\citation{Wegrzyn_2015}
\citation{Calvo_2013,Iwasaki_2016}
\citation{Du_2014,Cowen_2020}
\citation{Jack_2016}
\citation{Barrett_1999}
\citation{Widen_2003}
\@writefile{lof}{\contentsline {figure}{\numberline {2}{\ignorespaces \textbf  {Pixel-wise mapping of highlighted patterns.} A, absolute proportion of clicks, ranging from zero to one, averaged over all participants. B, relative proportion of clicks, ranging from minus one to one, compared with the grand mean over all expressions. Only clicks from correctly labeled trials are used and the threshold is set to five sigma. Interactive figures with adjustable thresholds are available \href  {https://gitlab.ub.uni-bielefeld.de/faceclicks/faceclicks/-/raw/master/reports/figures/main\_t\_fig.html?ref\_type=heads\&inline=false}{online}. Separate analyses for all ten individual face identities are reported in Extended Data Fig.~\ref  {fig:s1}. \relax }}{5}{figure.caption.2}\protected@file@percent }
\newlabel{fig:map}{{2}{5}{\textbf {Pixel-wise mapping of highlighted patterns.} A, absolute proportion of clicks, ranging from zero to one, averaged over all participants. B, relative proportion of clicks, ranging from minus one to one, compared with the grand mean over all expressions. Only clicks from correctly labeled trials are used and the threshold is set to five sigma. Interactive figures with adjustable thresholds are available \href {https://gitlab.ub.uni-bielefeld.de/faceclicks/faceclicks/-/raw/master/reports/figures/main\_t\_fig.html?ref\_type=heads\&inline=false}{online}. Separate analyses for all ten individual face identities are reported in Extended Data Fig.~\ref {fig:s1}. \relax }{figure.caption.2}{}}
\@writefile{toc}{\contentsline {subsection}{\numberline {3.6}Observer-generated maps in masked faces}{5}{subsection.3.6}\protected@file@percent }
\@writefile{toc}{\contentsline {section}{\numberline {4}Discussion}{5}{section.4}\protected@file@percent }
\@writefile{lof}{\contentsline {figure}{\numberline {3}{\ignorespaces \textbf  {Analyses averaged over Action Units (AUs).} A, hand-drawn AUs are shown as contours, overlaid onto the results from Fig.~\ref  {fig:mask}B. The AUs are listed below each image, sorted from most superior to most inferior AU. B, relative proportion of clicks for each AU, compared with the grand average over all expressions. Crosses on bars indicate that the AU belongs to the upper half of the face; circles indicate that it belongs to the lower half of the face. Error bars indicate five sigma confidence intervals. Different colors indicate different emotions and the colored labels indicate which emotion the AU with the highest numerical value belongs to.\relax }}{6}{figure.caption.3}\protected@file@percent }
\newlabel{fig:AU}{{3}{6}{\textbf {Analyses averaged over Action Units (AUs).} A, hand-drawn AUs are shown as contours, overlaid onto the results from Fig.~\ref {fig:mask}B. The AUs are listed below each image, sorted from most superior to most inferior AU. B, relative proportion of clicks for each AU, compared with the grand average over all expressions. Crosses on bars indicate that the AU belongs to the upper half of the face; circles indicate that it belongs to the lower half of the face. Error bars indicate five sigma confidence intervals. Different colors indicate different emotions and the colored labels indicate which emotion the AU with the highest numerical value belongs to.\relax }{figure.caption.3}{}}
\@writefile{lof}{\contentsline {figure}{\numberline {4}{\ignorespaces \textbf  {Pixel-wise mapping of confusions.} Confusion matrix with true expressions listed in rows and observer’s answers listed in columns. The maps depict the relative proportion of clicks, ranging from minus one to one, when comparing trials with confusions and trials with correct responses. Color maps are thresholded at p<.05 and contours delineate effects at five sigma. Numbers below each image indicate the number of participants with valid data for each comparison. Maps with raw confusion data are reported in Extended Data Fig.~\ref  {fig:s2} and~\ref  {fig:s3}. \relax }}{7}{figure.caption.4}\protected@file@percent }
\newlabel{fig:conf}{{4}{7}{\textbf {Pixel-wise mapping of confusions.} Confusion matrix with true expressions listed in rows and observer’s answers listed in columns. The maps depict the relative proportion of clicks, ranging from minus one to one, when comparing trials with confusions and trials with correct responses. Color maps are thresholded at p<.05 and contours delineate effects at five sigma. Numbers below each image indicate the number of participants with valid data for each comparison. Maps with raw confusion data are reported in Extended Data Fig.~\ref {fig:s2} and~\ref {fig:s3}. \relax }{figure.caption.4}{}}
\@writefile{lof}{\contentsline {figure}{\numberline {5}{\ignorespaces \textbf  {Prediction of expressions from highlighted maps.} Results of the Leave-One-Participant-Out Cross-Validation analyses, indicating how often a face was assigned the correct expression (y-axis). Colors indicate if the highlighted patterns from the full face were used, or if only patterns from the lower or the upper half of the face (of the full face condition) were used. Colored dots represent individual data points of the 202 participants. Expression labels on the x-axis are abbreviated to their first three letters. The dotted line indicates 14\% chance level. Error bars indicate five sigma confidence intervals.\relax }}{8}{figure.caption.5}\protected@file@percent }
\newlabel{fig:pred}{{5}{8}{\textbf {Prediction of expressions from highlighted maps.} Results of the Leave-One-Participant-Out Cross-Validation analyses, indicating how often a face was assigned the correct expression (y-axis). Colors indicate if the highlighted patterns from the full face were used, or if only patterns from the lower or the upper half of the face (of the full face condition) were used. Colored dots represent individual data points of the 202 participants. Expression labels on the x-axis are abbreviated to their first three letters. The dotted line indicates 14\% chance level. Error bars indicate five sigma confidence intervals.\relax }{figure.caption.5}{}}
\@writefile{lof}{\contentsline {figure}{\numberline {6}{\ignorespaces \textbf  {Comparisons of responses for masked and intact faces.} A, Percentage of correct recognitions for each of the expressions. Colors indicate if the participants saw the full face or only the lower or the upper face half. B, Percentage of clicks for each expression. Colors indicate if the coordinate data was taken from the full face, or only from the lower or the upper face half (of the full face condition). Colored dots represent individual data points of the 202 participants. C, differences of the upper versus lower conditions. Difference values for correct answers (x-axis) are based on the difference in the “upper “ and “lower” conditions in A, and difference values for numbers of clicks are based on difference values from B. Expression labels are abbreviated to their first three letters. Error bars indicate five sigma confidence intervals. Detailed comparisons of all emotions are reported in Extended Data Fig.~\ref  {fig:s4} and~\ref  {fig:s5}.\relax }}{9}{figure.caption.6}\protected@file@percent }
\newlabel{fig:mask}{{6}{9}{\textbf {Comparisons of responses for masked and intact faces.} A, Percentage of correct recognitions for each of the expressions. Colors indicate if the participants saw the full face or only the lower or the upper face half. B, Percentage of clicks for each expression. Colors indicate if the coordinate data was taken from the full face, or only from the lower or the upper face half (of the full face condition). Colored dots represent individual data points of the 202 participants. C, differences of the upper versus lower conditions. Difference values for correct answers (x-axis) are based on the difference in the “upper “ and “lower” conditions in A, and difference values for numbers of clicks are based on difference values from B. Expression labels are abbreviated to their first three letters. Error bars indicate five sigma confidence intervals. Detailed comparisons of all emotions are reported in Extended Data Fig.~\ref {fig:s4} and~\ref {fig:s5}.\relax }{figure.caption.6}{}}
\@writefile{lof}{\contentsline {figure}{\numberline {7}{\ignorespaces \textbf  {Pixel-wise mapping of highlighting of full versus masked faces.} In the plots, two independent data sets and analyses for the “upper” and “lower” conditions are merged into one figure (as participants only saw one face half at a time). The condition boundaries are indicated by the horizontal lines. A, relative proportion of clicks for the two masked conditions, ranging from minus one to one, compared with the grand mean over all expressions. B, comparisons of the masked data with the full face condition, with higher values indicating that a pixel was highlighted relatively more in the full face, compared to the masked face condition. Maps with raw data for the masking conditions are reported in Extended Data Fig.~\ref  {fig:s6}.\relax }}{10}{figure.caption.7}\protected@file@percent }
\newlabel{fig:hol}{{7}{10}{\textbf {Pixel-wise mapping of highlighting of full versus masked faces.} In the plots, two independent data sets and analyses for the “upper” and “lower” conditions are merged into one figure (as participants only saw one face half at a time). The condition boundaries are indicated by the horizontal lines. A, relative proportion of clicks for the two masked conditions, ranging from minus one to one, compared with the grand mean over all expressions. B, comparisons of the masked data with the full face condition, with higher values indicating that a pixel was highlighted relatively more in the full face, compared to the masked face condition. Maps with raw data for the masking conditions are reported in Extended Data Fig.~\ref {fig:s6}.\relax }{figure.caption.7}{}}
\bibstyle{apalike}
\bibdata{citations}
\bibcite{Adolphs_2005}{{1}{2005}{{Adolphs et~al.}}{{}}}
\bibcite{Barrett_2019}{{2}{2019}{{Barrett et~al.}}{{}}}
\bibcite{Barrett_1999}{{3}{1999}{{Barrett and Russell}}{{}}}
\bibcite{Blais_2017}{{4}{2017}{{Blais et~al.}}{{}}}
\bibcite{Blais_2012}{{5}{2012}{{Blais et~al.}}{{}}}
\bibcite{Bombari_2013}{{6}{2013}{{Bombari et~al.}}{{}}}
\bibcite{Calder_2000}{{7}{2000}{{Calder et~al.}}{{}}}
\bibcite{Calvo_2018}{{8}{2018}{{Calvo et~al.}}{{}}}
\bibcite{Calvo_2013}{{9}{2013}{{Calvo et~al.}}{{}}}
\bibcite{Calvo_2008}{{10}{2008}{{Calvo and Lundqvist}}{{}}}
\bibcite{cohn2007observer}{{11}{2007}{{Cohn et~al.}}{{}}}
\bibcite{Cowen_2020}{{12}{2020}{{Cowen et~al.}}{{}}}
\bibcite{DADDS_2008}{{13}{2008}{{Dadds et~al.}}{{}}}
\bibcite{Du_2011}{{14}{2011}{{Du and Martinez}}{{}}}
\bibcite{Du_2014}{{15}{2014}{{Du et~al.}}{{}}}
\bibcite{Eisenbarth_2011}{{16}{2011}{{Eisenbarth and Alpers}}{{}}}
\bibcite{ekman2011meant}{{17}{2011}{{Ekman and Cordaro}}{{}}}
\bibcite{ekman2002facial}{{18}{2002}{{Ekman et~al.}}{{}}}
\bibcite{ekman1978facial}{{19}{1978}{{Ekman and Friesen}}{{}}}
\bibcite{Friston_2007}{{20}{2007}{{Friston}}{{}}}
\bibcite{Goeleven_2008}{{21}{2008}{{Goeleven et~al.}}{{}}}
\bibcite{Gosselin_2001}{{22}{2001}{{Gosselin and Schyns}}{{}}}
\bibcite{Guo_2012}{{23}{2012}{{Guo}}{{}}}
\bibcite{Hsiao_2008}{{24}{2008}{{Hsiao and Cottrell}}{{}}}
\bibcite{Iwasaki_2016}{{25}{2016}{{Iwasaki and Noguchi}}{{}}}
\bibcite{Jack_2009}{{26}{2009}{{Jack et~al.}}{{}}}
\bibcite{Jack_2015}{{27}{2015}{{Jack and Schyns}}{{}}}
\bibcite{Jack_2016}{{28}{2016}{{Jack et~al.}}{{}}}
\bibcite{Lundqvist_1998}{{29}{1998}{{Lundqvist et~al.}}{{}}}
\bibcite{lyons2013discovering}{{30}{2013}{{Lyons}}{{}}}
\bibcite{Matsumoto_2008}{{31}{2008}{{Matsumoto and Ekman}}{{}}}
\bibcite{misaki2010comparison}{{32}{2010}{{Misaki et~al.}}{{}}}
\bibcite{Noyes_2021}{{33}{2021}{{Noyes et~al.}}{{}}}
\bibcite{Nummenmaa_2013}{{34}{2013}{{Nummenmaa et~al.}}{{}}}
\bibcite{Or_2023}{{35}{2023}{{Or et~al.}}{{}}}
\bibcite{Peterson_2022}{{36}{2022}{{Peterson et~al.}}{{}}}
\bibcite{Peterson_2012}{{37}{2012}{{Peterson and Eckstein}}{{}}}
\bibcite{Piepers_2012}{{38}{2012}{{Piepers and Robbins}}{{}}}
\bibcite{Schyns_2002}{{39}{2002}{{Schyns et~al.}}{{}}}
\bibcite{Smith_2005}{{40}{2005}{{Smith et~al.}}{{}}}
\bibcite{Tipples_2002}{{41}{2002}{{Tipples et~al.}}{{}}}
\bibcite{Tottenham_2009}{{42}{2009}{{Tottenham et~al.}}{{}}}
\bibcite{Wang_2012}{{43}{2012}{{Wang et~al.}}{{}}}
\bibcite{Wegrzyn_2015}{{44}{2015}{{Wegrzyn et~al.}}{{}}}
\bibcite{Wegrzyn_2017}{{45}{2017}{{Wegrzyn et~al.}}{{}}}
\bibcite{Whalen_2004}{{46}{2004}{{Whalen et~al.}}{{}}}
\bibcite{Widen_2003}{{47}{2003}{{Widen and Russell}}{{}}}
\@writefile{lof}{\contentsline {figure}{\numberline {1}{\ignorespaces  Relative proportion of clicks for each face identity. Click numbers are compared with the grand mean over all expressions. This corresponds to the analyses in Fig.~\ref  {fig:map}B of the main text, but here, results are shown separately for each of the ten individual face identities. Results are shown in descriptive fashion, with the threshold set for illustrative purposes only.\relax }}{13}{figure.caption.10}\protected@file@percent }
\newlabel{fig:s1}{{1}{13}{Relative proportion of clicks for each face identity. Click numbers are compared with the grand mean over all expressions. This corresponds to the analyses in Fig.~\ref {fig:map}B of the main text, but here, results are shown separately for each of the ten individual face identities. Results are shown in descriptive fashion, with the threshold set for illustrative purposes only.\relax }{figure.caption.10}{}}
\@writefile{lof}{\contentsline {figure}{\numberline {2}{\ignorespaces Absolute proportions of clicks for all answers. Confusion matrix with true expressions listed in rows and observer’s answers listed in columns. The maps depict the absolute proportion of clicks, ranging from zero to one. Color maps are thresholded at p<.05 and contours delineate effects at five sigma. The diagonal corresponds to Fig.~\ref  {fig:map}A of the main text. Numbers below each image indicate the number of participants with valid data for each analysis.\relax }}{14}{figure.caption.11}\protected@file@percent }
\newlabel{fig:s2}{{2}{14}{Absolute proportions of clicks for all answers. Confusion matrix with true expressions listed in rows and observer’s answers listed in columns. The maps depict the absolute proportion of clicks, ranging from zero to one. Color maps are thresholded at p<.05 and contours delineate effects at five sigma. The diagonal corresponds to Fig.~\ref {fig:map}A of the main text. Numbers below each image indicate the number of participants with valid data for each analysis.\relax }{figure.caption.11}{}}
\@writefile{lof}{\contentsline {figure}{\numberline {3}{\ignorespaces Relative proportions of clicks for all answers. Confusion matrix with true expressions listed in rows and observer’s answers listed in columns. The maps depict the relative proportion of clicks, as compared with a grand mean, and range from minus one to one. Color maps are thresholded at p<.05 and contours delineate effects at five sigma. The diagonal corresponds to Fig.~\ref  {fig:map}B of the main text. Numbers below each image indicate the number of participants with valid data for each analysis.\relax }}{15}{figure.caption.12}\protected@file@percent }
\newlabel{fig:s3}{{3}{15}{Relative proportions of clicks for all answers. Confusion matrix with true expressions listed in rows and observer’s answers listed in columns. The maps depict the relative proportion of clicks, as compared with a grand mean, and range from minus one to one. Color maps are thresholded at p<.05 and contours delineate effects at five sigma. The diagonal corresponds to Fig.~\ref {fig:map}B of the main text. Numbers below each image indicate the number of participants with valid data for each analysis.\relax }{figure.caption.12}{}}
\@writefile{lof}{\contentsline {figure}{\numberline {4}{\ignorespaces Comparisons of responses for masked and intact faces. A, Percentage of correct recognitions for each of the expressions, same as in Fig.~\ref  {fig:mask}. Colors indicate if the participants saw the full face or only the lower or the upper face half. B, Recognition accuracies and confusions rendered as heatmaps for individual face identities. True emotions of the images are listed in columns and answers given by the participants in rows. Redder colors indicate larger proportion of answers. C, confusion matrices, with true emotions of the images in rows and answers in columns. Significant deviations from 14\% guessing are indicated by black font. D, pairwise comparisons of the data from C across the three masking conditions, with e.g. the angry face being 39\% more often recognized correctly in the full compared to the lower masked condition. Significant deviations from zero (no difference) are indicated by black font.\relax }}{16}{figure.caption.13}\protected@file@percent }
\newlabel{fig:s4}{{4}{16}{Comparisons of responses for masked and intact faces. A, Percentage of correct recognitions for each of the expressions, same as in Fig.~\ref {fig:mask}. Colors indicate if the participants saw the full face or only the lower or the upper face half. B, Recognition accuracies and confusions rendered as heatmaps for individual face identities. True emotions of the images are listed in columns and answers given by the participants in rows. Redder colors indicate larger proportion of answers. C, confusion matrices, with true emotions of the images in rows and answers in columns. Significant deviations from 14\% guessing are indicated by black font. D, pairwise comparisons of the data from C across the three masking conditions, with e.g. the angry face being 39\% more often recognized correctly in the full compared to the lower masked condition. Significant deviations from zero (no difference) are indicated by black font.\relax }{figure.caption.13}{}}
\@writefile{lof}{\contentsline {figure}{\numberline {5}{\ignorespaces Comparisons of responses for masked and intact faces. A, Direct comparisons of the number of clicks into the upper and lower face half (based on the data in Fig.~\ref  {fig:mask}B). Positive values indicate more clicks into the upper half than into the lower half of the intact face. B Direct comparisons of the accuracies for the upper and lower face mask conditions (based on the data in Fig.~\ref  {fig:mask}A). C and D show all pairwise differences between emotions, with colored cells indicating significant differences. E.g. there were 25\% more clicks into the upper versus the lower face half for surprise, compared to happiness. E, same as Fig.~\ref  {fig:mask}C, but without the face icons, which in some cases might have obstructed visibility. \relax }}{17}{figure.caption.14}\protected@file@percent }
\newlabel{fig:s5}{{5}{17}{Comparisons of responses for masked and intact faces. A, Direct comparisons of the number of clicks into the upper and lower face half (based on the data in Fig.~\ref {fig:mask}B). Positive values indicate more clicks into the upper half than into the lower half of the intact face. B Direct comparisons of the accuracies for the upper and lower face mask conditions (based on the data in Fig.~\ref {fig:mask}A). C and D show all pairwise differences between emotions, with colored cells indicating significant differences. E.g. there were 25\% more clicks into the upper versus the lower face half for surprise, compared to happiness. E, same as Fig.~\ref {fig:mask}C, but without the face icons, which in some cases might have obstructed visibility. \relax }{figure.caption.14}{}}
\@writefile{lof}{\contentsline {figure}{\numberline {6}{\ignorespaces Pixel-wise mapping of highlighting of full versus masked faces. Extensions of Fig.~\ref  {fig:map} and~\ref  {fig:hol}. A, the maps depict the absolute proportion of clicks, ranging from zero to one. This is shown for the full and face half conditions and for the comparison of the two. B, the maps depict the relative proportion of clicks, ranging from minus one to one. This is shown for the full and face half conditions and for the comparison of the two.\relax }}{18}{figure.caption.15}\protected@file@percent }
\newlabel{fig:s6}{{6}{18}{Pixel-wise mapping of highlighting of full versus masked faces. Extensions of Fig.~\ref {fig:map} and~\ref {fig:hol}. A, the maps depict the absolute proportion of clicks, ranging from zero to one. This is shown for the full and face half conditions and for the comparison of the two. B, the maps depict the relative proportion of clicks, ranging from minus one to one. This is shown for the full and face half conditions and for the comparison of the two.\relax }{figure.caption.15}{}}
\newlabel{LastPage}{{}{18}{}{page.18}{}}
\xdef\lastpage@lastpage{18}
\xdef\lastpage@lastpageHy{18}
\ttl@finishall
\gdef \@abspage@last{18}
